{
  "project_info": {
    "project_number": "161133702199",
    "firebase_url": "https://e-matrix-19a34.firebaseio.com",
    "project_id": "e-matrix-19a34",
    "storage_bucket": "e-matrix-19a34.appspot.com"
  },
  "client": [
    {
      "client_info": {
        "mobilesdk_app_id": "1:161133702199:android:e1e3fe51b6e55874",
        "android_client_info": {
          "package_name": "pic.kvasik.vlad.e_matrix"
        }
      },
      "oauth_client": [
        {
          "client_id": "161133702199-bqah889knh94n8gfovasrdr38oqj6uoe.apps.googleusercontent.com",
          "client_type": 1,
          "android_info": {
            "package_name": "pic.kvasik.vlad.e_matrix",
            "certificate_hash": "326ef6caec73c35a599dd34415c49bad5dea9236"
          }
        },
        {
          "client_id": "161133702199-nruhgih5vrsf5am8lbe70a1hesuopqdd.apps.googleusercontent.com",
          "client_type": 3
        }
      ],
      "api_key": [
        {
          "current_key": "AIzaSyDURP85Zuw7N48flgRpI61s6CMr1f6tZdI"
        }
      ],
      "services": {
        "analytics_service": {
          "status": 1
        },
        "appinvite_service": {
          "status": 2,
          "other_platform_oauth_client": [
            {
              "client_id": "161133702199-nruhgih5vrsf5am8lbe70a1hesuopqdd.apps.googleusercontent.com",
              "client_type": 3
            }
          ]
        },
        "ads_service": {
          "status": 2
        }
      }
    }
  ],
  "configuration_version": "1"
}